Broom methods for tidy cuminc objects — broom_methods_cuminc • tidycmprsk
…
  x^exp(-z * se / (x * log(x))), x^exp(z * se / (x * log(x)))

    See also

    Other cuminc() functions: 
autoplot.tidycuminc(),
cuminc()

    Examples

cuminc <- cuminc(Surv(ttdeath, death_cr) ~ trt, trial)

tidy(cuminc)
#> # A tibble: 444 × 5
#>    outcome           strata  time estimate std.error
#>    <chr>             <chr>  <dbl>    <dbl>     <dbl>
#>  1 death from cancer Drug A  0      0         0     
#>  2 death from cancer Drug A  3.53   0         0     
#>  3 death from cancer Drug A  5.33   0         0     
#>  4 death from cancer Drug A  6.32   0         0     
#>  5 death from cancer Drug A  7.27   0.0102    0.0102
#>  6 death from cancer Drug A  7.38   0.0204    0.0144
#>  7 death from cancer Drug A  8.37   0.0204    0.0144
#>  8 death from cancer Drug A  8.71   0.0204    0.0144
#>  9 death from cancer Drug A  9.24   0.0204    0.0144
#> 10 death from cancer Drug A  9.73   0.0204    0.0144
#> # … with 434 more rows
…
