Broom methods for tidy cuminc objects — broom_methods_cuminc • tidycmprsk
…
    See also

    Other cuminc() functions: 
autoplot.tidycuminc(),
cuminc()

    Examples

cuminc <- cuminc(Surv(ttdeath, death_cr) ~ trt, trial)

tidy(cuminc)
#> # A tibble: 228 × 12
#>     time outcome     strata estimate std.error conf.low conf.high n.risk n.event
#>    <dbl> <chr>       <chr>     <dbl>     <dbl>    <dbl>     <dbl>  <int>   <int>
#>  1  0    death from… Drug A   0         0      NA         NA          98       0
#>  2  3.53 death from… Drug A   0         0      NA         NA          98       0
#>  3  7.27 death from… Drug A   0.0102    0.0102  8.84e-4    0.0503     97       1
#>  4  7.38 death from… Drug A   0.0204    0.0144  3.90e-3    0.0652     96       1
#>  5  8.37 death from… Drug A   0.0204    0.0144  3.90e-3    0.0652     95       0
#>  6 10.1  death from… Drug A   0.0204    0.0144  3.90e-3    0.0652     94       0
#>  7 10.3  death from… Drug A   0.0204    0.0144  3.90e-3    0.0652     93       0
#>  8 10.5  death from… Drug A   0.0204    0.0144  3.90e-3    0.0652     92       0
#>  9 11.4  death from… Drug A   0.0306    0.0175  8.17e-3    0.0798     91       1
#> 10 11.8  death from… Drug A   0.0306    0.0175  8.17e-3    0.0798     90       0
#> # … with 218 more rows, and 3 more variables: n.censor <int>, cum.event <int>,
#> #   cum.censor <int>
…
